Lab 5
…
In the manual, we can see that days 1, 6, and 7 are Sunday, Friday, and Saturday respectively. Those days tend to have more accidents. If I had to guess, I would say that it is because people go out more on weekend nights, and there might be more impaired drivers on those nights.

2

fatal <- person %>% filter(INJ_SEV == 4)

3

make_danger = fatal %>% drop_na(MAKE) %>% group_by(STATE, MAKE) %>% summarise(nfatal = n()) %>% filter(nfatal == max(nfatal))

## `summarise()` has grouped output by 'STATE'. You can override using the `.groups` argument.

make_danger

## # A tibble: 54 x 3
## # Groups:   STATE [51]
##    STATE  MAKE nfatal
##    <int> <int>  <int>
##  1     1    12    138
##  2     2    12      9
##  3     4    20     88
##  4     5    20     88
##  5     6    49    351
##  6     8    12     63
##  7     8    37     63
##  8     9    37     28
##  9    10    37     12
## 10    11    37      5
## # ... with 44 more rows
…
We can see that the number of accidents tends to get higher over the weekend.

acc %>% group_by(HOUR) %>% summarise(n = n())

## # A tibble: 25 x 2
##     HOUR     n
##    <int> <int>
##  1     0  1321
##  2     1  1177
##  3     2  1241
##  4     3   957
##  5     4   813
##  6     5  1065
##  7     6  1282
##  8     7  1162
##  9     8   945
## 10     9   929
## # ... with 15 more rows
…
